<?xml version="1.0" encoding="utf-8"?>
<!-- Generator: Adobe Illustrator 21.0.0, SVG Export Plug-In . SVG Version: 6.00 Build 0)  -->
<svg version="1.1" id="Layer_1" xmlns="http://www.w3.org/2000/svg" xmlns:xlink="http://www.w3.org/1999/xlink" x="0px" y="0px"
	 width="32px" height="32px" viewBox="0 0 32 32" style="enable-background:new 0 0 32 32;" xml:space="preserve">
<style type="text/css">
	.st0{fill:#FFFFFF;}
</style>
<path class="st0" d="M17.3,18.1c0.9,0.5,1.9,1,2.8,1.5c-0.6,0.7-0.5,1.5,0.1,2.2c-0.2,0.1-0.3,0.1-0.4,0.1c-0.7,0.2-1.2,0.7-1.3,1.5
	c0,0.4,0,0.8,0,1.2c0,1.2,0.4,1.6,1.6,2c-1.2,1.4-0.1,2.3,0.9,3.2c-0.5,0.1-0.9,0.2-1.4,0.3c-4.6,0.6-9.2,0.7-13.8-0.2
	c-1.1-0.2-2.2-0.6-3.3-1c-0.5-0.2-0.9-0.5-1.3-0.7c-0.5-0.4-0.9-1-0.8-1.7c0.2-1.2,0.2-2.4,0.4-3.6c0.2-1.5,1.2-2.4,2.7-2.7
	c1.3-0.2,2.6-0.5,3.7-1c0.5-0.3,1.1-0.6,1.6-0.9c0.5,0.9,1.4,1.1,2.4,1.3c1.6,0.3,3.1,0.2,4.6-0.3C16.6,18.9,17.1,18.6,17.3,18.1z
	 M13.7,2c0.9,0,2,0.4,3.1,0.9c1.9,1,2.4,2.7,2.5,4.6c0.1,0.5,0.1,1,0.4,1.5c0.5,0.8,0.1,2.7-0.6,3.3c-0.2,0.2-0.3,0.3-0.4,0.5
	c-0.6,1.5-1.5,2.8-2.7,3.8c-1.3,1-2.7,1.4-4.3,0.7c-1.3-0.6-2.2-1.6-2.9-2.7c-0.2-0.4-0.4-0.8-0.6-1.1c-0.2-0.5-0.5-0.9-0.8-1.3
	c-0.7-0.9-0.9-2-0.5-2.9c0.4-0.9,0.3-1.8,0.5-2.7C7.5,6,7.8,5.2,8.1,4.5c0.4-0.9,1.3-1.3,2-1.7C11.1,2.2,12.2,2,13.7,2z M24.7,30.1
	c-0.1-0.2-0.2-0.4-0.3-0.5c0-0.1-0.1-0.2-0.1-0.3c-0.2-0.6-0.6-0.9-1.3-1c-0.1,0-0.3,0-0.4,0c-0.3,0.1-0.5,0.2-0.8,0.4
	c-0.3,0.1-0.4,0.1-0.7-0.1c-0.1-0.1-0.2-0.2-0.3-0.3c-0.3-0.3-0.3-0.4-0.1-0.7c0.1-0.3,0.3-0.6,0.3-0.8c0.1-0.5-0.2-1.2-0.6-1.4
	c-0.3-0.1-0.6-0.2-0.8-0.3c-0.3-0.1-0.4-0.3-0.4-0.5c0-0.2,0-0.3,0-0.5c0-0.3,0.1-0.4,0.4-0.5c0.3-0.1,0.6-0.2,0.9-0.4
	c0.4-0.2,0.7-0.9,0.5-1.4c-0.1-0.3-0.2-0.5-0.4-0.8c-0.1-0.3-0.1-0.4,0.1-0.7c0.1-0.1,0.2-0.2,0.4-0.4c0.2-0.2,0.4-0.2,0.6-0.1
	c0.3,0.1,0.7,0.3,1,0.4c0.4,0.1,1.1-0.2,1.2-0.6c0.1-0.3,0.2-0.6,0.4-0.9c0.1-0.3,0.3-0.4,0.5-0.4c0.2,0,0.4,0,0.5,0
	c0.3,0,0.4,0.1,0.5,0.4c0.1,0.3,0.2,0.6,0.4,0.9c0.2,0.4,1,0.7,1.4,0.5c0.3-0.1,0.5-0.2,0.8-0.3c0.3-0.1,0.4-0.1,0.7,0.1
	c0.1,0.1,0.2,0.2,0.4,0.4c0.2,0.2,0.2,0.4,0.1,0.7c-0.1,0.3-0.3,0.6-0.4,0.9c-0.1,0.4,0.2,1.1,0.5,1.2c0.3,0.2,0.6,0.3,0.9,0.4
	c0.1,0.1,0.2,0.1,0.4,0.2c0,0.4,0,0.8,0,1.2c-0.1,0.1-0.3,0.2-0.4,0.2c-0.3,0.1-0.6,0.2-0.9,0.4c-0.3,0.2-0.6,0.9-0.5,1.3
	c0.1,0.3,0.2,0.6,0.4,0.9c0.1,0.3,0.1,0.4-0.1,0.7c-0.1,0.1-0.2,0.2-0.4,0.4c-0.2,0.2-0.4,0.2-0.6,0.1c-0.2-0.1-0.3-0.2-0.5-0.2
	c-0.2-0.1-0.5-0.2-0.7-0.2c-0.5,0.1-1,0.3-1.2,0.8c-0.1,0.2-0.1,0.3-0.2,0.5c-0.1,0.2-0.2,0.3-0.3,0.5
	C25.5,30.1,25.1,30.1,24.7,30.1z M28.3,24.1c0-1.6-1.3-3-3-3c-1.7,0-3,1.3-3,3c0,1.7,1.3,3,3,3C26.9,27.2,28.3,25.8,28.3,24.1z
	 M23.5,24.1c0,1,0.8,1.8,1.8,1.8c1,0,1.8-0.8,1.8-1.8c0-1-0.8-1.8-1.8-1.8C24.3,22.3,23.5,23.1,23.5,24.1z"/>
</svg>
