<?xml version="1.0" encoding="utf-8"?>
<!-- Generator: Adobe Illustrator 21.0.0, SVG Export Plug-In . SVG Version: 6.00 Build 0)  -->
<svg version="1.1" id="Layer_1" xmlns="http://www.w3.org/2000/svg" xmlns:xlink="http://www.w3.org/1999/xlink" x="0px" y="0px"
	 width="32px" height="32px" viewBox="0 0 32 32" style="enable-background:new 0 0 32 32;" xml:space="preserve">
<style type="text/css">
	.st0{fill:#FFFFFF;}
</style>
<path class="st0" d="M14.2,21.8c-0.8,0-1.3-0.8-0.8-1.3c0.6-0.8,1.3-1.4,2-2c0.5-0.2,1-0.1,1.3,0.3c0.1,0.2,0.1,0.3,0.1,0.5
	C16.7,20.1,15,21.9,14.2,21.8z M10.5,12.8c0.1-0.8,1.8-2.5,2.6-2.5s1.3,0.8,0.9,1.3c-0.6,0.8-1.3,1.5-2.2,2.2
	C11.2,14.1,10.5,13.4,10.5,12.8z M1.7,4.4c0,0-1.1,1.3-1.1,1.7C0.7,9,0.8,11.9,1,14.6c0.1,0.8,0.4,1.5,0.9,2
	c3.9,4,7.8,7.8,11.6,11.6c0.8,0.8,1.3,0.8,2,0l5.3-5.3c-2.3-2.8-1.9-6.9,0.9-9.2c0.2-0.2,0.3-0.2,0.5-0.4l-8.4-8.3
	c-0.7-0.7-1.5-1.1-2.5-1.1c-2-0.1-4.1-0.3-6.2-0.4c-0.8,0-1.6,0-2.3,0l1.9,2.5c0.1,0,0.4,0,0.5,0.1c0.8,0.2,1.3,1,1,1.8
	C6.2,8.9,5.5,9.4,4.7,9.3C3.9,9.2,3.3,8.6,3.4,7.7c0-0.4-0.1-0.8-0.2-1 M9.4,11.9c0.8-0.9,1.6-1.7,2.4-2.5c0.3-0.2,0.6-0.3,0.9-0.4
	c2,0,3.4,2.2,2.4,3.6c-0.7,1-1.5,1.9-2.5,2.5c-0.9,0.7-1.9,0.4-2.8-0.5C8.9,13.8,8.8,12.9,9.4,11.9L9.4,11.9z M7.9,18.1
	c3.4-1.3,6.9-2.7,10.3-3.9c0.3-0.1,0.9,0.4,1.4,0.7l-0.1,0.3l-5,2c-1.5,0.6-3,1-4.5,1.7c-0.6,0.4-1.5,0.3-1.9-0.4
	C8,18.3,7.9,18.2,7.9,18.1L7.9,18.1z M18.1,21.1c-0.7,1-1.5,1.8-2.5,2.6c-1,0.7-1.9,0.4-2.8-0.5c-0.9-1-1.1-1.9-0.4-2.8
	c0.8-0.9,1.6-1.7,2.5-2.5c0.3-0.2,0.6-0.2,0.9-0.2C17.6,17.6,19,19.7,18.1,21.1L18.1,21.1z M25.2,24.6c-0.1-0.2-0.2-0.3-0.3-0.5
	c0-0.1-0.1-0.2-0.1-0.2c-0.2-0.6-0.6-0.9-1.1-0.9c-0.1,0-0.2,0-0.3,0c-0.3,0.1-0.5,0.2-0.7,0.3c-0.2,0.1-0.4,0.1-0.6-0.1
	c-0.1-0.1-0.2-0.2-0.3-0.3c-0.2-0.2-0.2-0.4-0.1-0.7c0.1-0.3,0.2-0.5,0.3-0.8c0.1-0.4-0.2-1.1-0.6-1.2c-0.2-0.1-0.5-0.2-0.8-0.3
	c-0.2-0.1-0.4-0.2-0.4-0.5c0-0.2,0-0.3,0-0.5c0-0.3,0.1-0.4,0.4-0.5c0.3-0.1,0.6-0.2,0.8-0.3c0.4-0.2,0.6-0.9,0.5-1.3
	c-0.1-0.3-0.2-0.5-0.3-0.7c-0.1-0.2-0.1-0.4,0.1-0.6c0.1-0.1,0.2-0.2,0.3-0.3c0.2-0.2,0.3-0.2,0.6-0.1c0.3,0.1,0.6,0.3,0.9,0.4
	c0.3,0.1,1-0.2,1.1-0.5c0.1-0.3,0.2-0.5,0.3-0.8c0.1-0.2,0.2-0.4,0.5-0.4c0.2,0,0.3,0,0.5,0c0.2,0,0.4,0.1,0.5,0.4
	c0.1,0.3,0.2,0.5,0.3,0.8c0.2,0.4,0.9,0.6,1.3,0.5c0.2-0.1,0.5-0.2,0.7-0.3c0.3-0.1,0.4-0.1,0.6,0.1c0.1,0.1,0.2,0.2,0.3,0.3
	c0.2,0.2,0.2,0.3,0.1,0.6c-0.1,0.3-0.2,0.6-0.3,0.8c-0.1,0.3,0.1,0.9,0.5,1.1c0.3,0.1,0.5,0.2,0.8,0.4c0.1,0.1,0.2,0.1,0.3,0.2
	c0,0.4,0,0.7,0,1.1c-0.1,0.1-0.2,0.2-0.4,0.2c-0.3,0.1-0.5,0.2-0.8,0.4c-0.3,0.2-0.6,0.8-0.4,1.2c0.1,0.3,0.2,0.5,0.3,0.8
	c0.1,0.3,0.1,0.4-0.1,0.6c-0.1,0.1-0.2,0.2-0.3,0.3c-0.2,0.2-0.3,0.2-0.6,0.1c-0.2-0.1-0.3-0.2-0.5-0.2C28.2,23,28,22.9,27.8,23
	c-0.5,0.1-0.9,0.2-1.1,0.8c-0.1,0.2-0.1,0.3-0.2,0.5c-0.1,0.1-0.2,0.3-0.3,0.4C25.9,24.6,25.6,24.6,25.2,24.6z M28.5,19.3
	c0-1.5-1.2-2.7-2.7-2.7c-1.5,0-2.7,1.2-2.7,2.7c0,1.5,1.2,2.7,2.7,2.7C27.2,22,28.4,20.8,28.5,19.3z M24.1,19.2
	c0,0.9,0.7,1.6,1.6,1.6c0.9,0,1.6-0.7,1.6-1.6c0-0.9-0.7-1.6-1.6-1.6C24.9,17.6,24.1,18.3,24.1,19.2z"/>
</svg>
