<?xml version="1.0" encoding="utf-8"?>
<!-- Generator: Adobe Illustrator 21.0.0, SVG Export Plug-In . SVG Version: 6.00 Build 0)  -->
<svg version="1.1" id="Layer_1" xmlns="http://www.w3.org/2000/svg" xmlns:xlink="http://www.w3.org/1999/xlink" x="0px" y="0px"
	 width="32px" height="32px" viewBox="0 0 32 32" style="enable-background:new 0 0 32 32;" xml:space="preserve">
<style type="text/css">
	.st0{fill:#FFFFFF;}
</style>
<path class="st0" d="M0.5,14.8c0.1-0.2,0.1-0.3,0.2-0.4c0.4-0.9,1.1-1.4,2-1.5c2.9,0,5.7,0,8.5,0c0,0,0.1,0,0.2,0.1c-0.1,0.1-0.2,0.2-0.2,0.3
	c-0.7,0.7-1.4,1.4-2,2c-0.2,0.2-0.5,0.3-0.8,0.3c-1.1,0-2.3,0-3.4,0s-1.8,0.7-1.9,1.8c0,3.1,0,6.3,0,9.4c0,1.2,0.7,1.9,1.9,1.9
	c3.1,0,6.2,0,9.3,0c1.2,0,1.9-0.7,1.9-1.9c0-0.8,0-1.6,0-2.4c0-0.2,0-0.3,0.2-0.4c0.8-0.8,1.6-1.7,2.5-2.5c0,0.2,0,0.3,0,0.5
	c0,2.3,0,4.6,0,7c0,1.5-1,2.5-2.5,2.5c-4.4,0-8.9,0-13.2,0c-1.4,0-2-0.5-2.6-1.8l-0.1-0.1C0.5,24.6,0.5,19.7,0.5,14.8z M20.1,12.3
	c0,2.6,0,5.1,0,7.8c-0.8-0.8-1.6-1.6-2.4-2.4c-1.7,1.7-3.5,3.5-5.2,5.1c-1-1-2-2-3-3c1.7-1.7,3.4-3.4,5.1-5.1
	c-0.8-0.8-1.7-1.6-2.5-2.5C14.8,12.3,17.4,12.3,20.1,12.3z M20.8,11.4c0-2.6,0-5.1,0-7.8c0.8,0.8,1.6,1.7,2.3,2.4
	c1.7-1.7,3.5-3.5,5.2-5.1c1,1,2,2,3,3c-1.7,1.7-3.4,3.4-5.1,5.1c0.8,0.8,1.7,1.6,2.5,2.5C26,11.4,23.4,11.4,20.8,11.4z"/>
</svg>
