<?xml version="1.0" encoding="utf-8"?>
<!-- Generator: Adobe Illustrator 21.0.0, SVG Export Plug-In . SVG Version: 6.00 Build 0)  -->
<svg version="1.1" id="Layer_1" xmlns="http://www.w3.org/2000/svg" xmlns:xlink="http://www.w3.org/1999/xlink" x="0px" y="0px"
	 width="32px" height="32px" viewBox="0 0 32 32" style="enable-background:new 0 0 32 32;" xml:space="preserve">
<style type="text/css">
	.st0{fill:#FFFFFF;}
</style>
<path class="st0" d="M0.5,31.3c0-0.6,0-1.3,0-1.9c0.6,0,1.3,0,2,0c0-9.7,0-19.3,0-28.9c4.5,0,9,0,13.5,0c0,3.9,0,7.7,0,11.6c4.5,0,9,0,13.5,0
	c0,5.8,0,11.6,0,17.4c0.7,0,1.3,0,1.9,0c0,0.7,0,1.3,0,1.9C21,31.3,10.8,31.3,0.5,31.3z M12.1,25.5c-1.9,0-3.8,0-5.7,0
	c0,1.3,0,2.6,0,3.8c1.9,0,3.8,0,5.7,0C12.1,28.1,12.1,26.8,12.1,25.5z M25.6,29.4c0-1.3,0-2.6,0-3.8c-1.9,0-3.8,0-5.7,0
	c0,1.3,0,2.5,0,3.8C21.7,29.4,23.6,29.4,25.6,29.4z M4.4,2.4c0,1.3,0,2.6,0,3.8c1.3,0,2.6,0,3.8,0c0-1.3,0-2.5,0-3.8
	C6.9,2.4,5.7,2.4,4.4,2.4z M14,2.4c-1.3,0-2.6,0-3.8,0c0,1.3,0,2.6,0,3.8c1.3,0,2.5,0,3.8,0C14,4.9,14,3.7,14,2.4z M8.2,8.2
	c-1.3,0-2.6,0-3.8,0c0,1.3,0,2.6,0,3.8c1.3,0,2.5,0,3.8,0C8.2,10.7,8.2,9.4,8.2,8.2z M14,8.2c-1.3,0-2.6,0-3.8,0c0,1.3,0,2.5,0,3.8
	c1.3,0,2.6,0,3.8,0C14,10.7,14,9.4,14,8.2z M4.4,13.9c0,1.3,0,2.6,0,3.8c1.3,0,2.6,0,3.8,0c0-1.3,0-2.5,0-3.8
	C6.9,13.9,5.7,13.9,4.4,13.9z M10.2,13.9c0,1.3,0,2.5,0,3.8c1.3,0,2.5,0,3.8,0c0-1.3,0-2.6,0-3.8C12.7,13.9,11.5,13.9,10.2,13.9z
	 M21.7,17.8c0-1.3,0-2.6,0-3.8c-1.3,0-2.6,0-3.8,0c0,1.3,0,2.5,0,3.8C19.2,17.8,20.4,17.8,21.7,17.8z M23.7,13.9c0,1.3,0,2.6,0,3.8
	c1.3,0,2.5,0,3.8,0c0-1.3,0-2.5,0-3.8C26.2,13.9,25,13.9,23.7,13.9z M4.4,19.7c0,1.3,0,2.6,0,3.8c1.3,0,2.6,0,3.8,0
	c0-1.3,0-2.5,0-3.8C6.9,19.7,5.7,19.7,4.4,19.7z M10.2,23.6c1.3,0,2.6,0,3.8,0c0-1.3,0-2.6,0-3.8c-1.3,0-2.5,0-3.8,0
	C10.2,21,10.2,22.3,10.2,23.6z M17.9,19.7c0,1.3,0,2.6,0,3.8c1.3,0,2.6,0,3.8,0c0-1.3,0-2.5,0-3.8C20.4,19.7,19.2,19.7,17.9,19.7z
	 M27.5,23.6c0-1.3,0-2.6,0-3.8c-1.3,0-2.6,0-3.8,0c0,1.3,0,2.5,0,3.8C25,23.6,26.2,23.6,27.5,23.6z"/>
</svg>
