<?xml version="1.0" encoding="utf-8"?>
<!-- Generator: Adobe Illustrator 21.0.0, SVG Export Plug-In . SVG Version: 6.00 Build 0)  -->
<svg version="1.1" id="Layer_1" xmlns="http://www.w3.org/2000/svg" xmlns:xlink="http://www.w3.org/1999/xlink" x="0px" y="0px"
	 width="32px" height="32px" viewBox="0 0 32 32" style="enable-background:new 0 0 32 32;" xml:space="preserve">
<style type="text/css">
	.st0{fill:#FFFFFF;}
</style>
<path class="st0" d="M25.5,28.6c-0.4-2.1-0.9-4-1.3-6c-0.3-1.3-0.5-2.6-0.8-3.8c0-0.1,0-0.3,0.1-0.4c0.3-0.7,0.7-1.3,1-2
	c0.1-0.2,0.1-0.5,0.1-0.7c-0.1-0.4-0.4-0.6-0.8-0.3c-0.1,0.1-0.3,0.3-0.4,0.4c-0.5,1.1-1,2.1-1.6,3.3c-0.1,0.1-0.1,0.1-0.1,0.3
	c-0.1,0.5,0.1,0.9,0.7,1c0.4,1.8,0.7,3.6,1.2,5.5c-0.7,0.1-1.3,0.1-1.8,0.2c-1.8,0.1-3.7,0.4-5.5,0.5c-1.8,0.1-3.5,0.4-5.3,0.5
	c-0.7,0.1-1.3,0.1-2,0.2c-0.4,0.1-0.7,0.4-0.7,0.8c0,0.4,0.3,0.7,0.7,0.7c5.1,0,10.2,0,15.3,0C24.6,28.6,25,28.6,25.5,28.6z
	 M17.8,18.1c0.1,0.4,0.2,0.8,0.4,1.1c0.1,0.2,0.2,0.4,0.4,0.5c0.5,0.2,1.1,0.5,1.6,0.7c0.3,0.1,0.5,0,0.7-0.2c0.1-0.2,0-0.5-0.2-0.7
	c-0.4-0.2-0.9-0.4-1.3-0.7c-0.1-0.1-0.2-0.2-0.3-0.4c-0.2-0.7-0.4-1.4-0.6-2.1c-0.1-0.3-0.2-0.5-0.5-0.6c-0.4-0.1-0.7-0.2-1.2-0.3
	c-0.2-0.1-0.5,0-0.8,0.1c-0.8,0.3-1.6,0.7-2.4,1c-0.2,0.1-0.4,0.3-0.5,0.5c-0.2,0.5-0.4,1-0.6,1.6c-0.1,0.3,0,0.5,0.3,0.7
	c0.2,0.1,0.5,0,0.6-0.3c0.1-0.4,0.3-0.8,0.4-1.2c0.1-0.2,0.1-0.4,0.4-0.4c0.4-0.1,0.8-0.4,1.3-0.5c-0.1,0.4-0.2,0.9-0.4,1.3
	c-0.4,1.5-0.8,2.9-1.3,4.4c-0.1,0.2-0.1,0.3-0.4,0.3c-0.7,0.1-1.5,0.4-2.1,0.5c-0.4,0.1-0.5,0.4-0.4,0.7s0.4,0.6,0.7,0.5
	c0.1,0,0.1,0,0.2-0.1c0.9-0.2,1.8-0.4,2.7-0.7c0.3-0.1,0.4-0.2,0.5-0.4c0.2-0.7,0.4-1.3,0.6-2c0.6,0.4,1.2,0.9,1.8,1.3
	c0.1,0.1,0.1,0.1,0.1,0.3c-0.1,0.7-0.1,1.5-0.2,2.2c-0.1,0.4,0.2,0.7,0.6,0.8c0.4,0,0.6-0.2,0.7-0.7c0.1-1,0.2-2,0.3-3
	c0-0.4-0.2-0.6-0.4-0.7c-0.4-0.4-1-0.7-1.4-1c-0.1-0.1-0.1-0.1-0.1-0.2C17.2,19.7,17.5,18.9,17.8,18.1z M16.4,14.3
	c0,0.7,0.6,1.3,1.3,1.3c0.7,0,1.3-0.6,1.3-1.3S18.5,13,17.8,13S16.4,13.6,16.4,14.3z M28.5,13.9c0-2.5,0-5,0-7.5
	c0-0.1-0.1-0.3-0.1-0.4c-1.7-1.7-3.3-3.3-5-5c-0.1-0.1-0.1-0.1-0.1-0.2c-5.8,0-11.7,0-17.5,0c0,1,0,1.9,0,2.9c0.3,0,0.5-0.1,0.8-0.1
	c0.3,0,0.6,0,0.8,0.1c0-0.3,0-0.5,0-0.8c4.4,0,8.9,0,13.3,0c0,1.9,0,3.8,0,5.7c0.1,0,0.2,0,0.3,0c1.8,0,3.5,0,5.2,0
	c0.2,0,0.3,0.1,0.3,0.3c0,1.8,0,3.5,0,5.3c0,0.1,0,0.1,0,0.2l-0.1,15.1c-4.9,0-14.2,0-19,0c0-3.4,0-6.8,0-10.2
	c-0.3,0-0.5,0.1-0.8,0.1c-0.3,0-0.5,0-0.8-0.1c0,4,0,8,0,12c7.5,0,15.2,0,22.8,0L28.5,13.9z M22.8,6.5c0-1.1,0-2.2,0-3.3
	c1.1,1,2.2,2.1,3.3,3.3C25.1,6.5,24,6.5,22.8,6.5z M7.3,5.2c-3.5,0-6.2,2.7-6.2,6.2s2.8,6.2,6.2,6.2c3.5,0,6.2-2.8,6.2-6.2
	C13.5,8,10.7,5.2,7.3,5.2z M7,14.9c-1.1-0.9-2.2-1.8-3.4-2.7c0.3-0.4,0.6-1,1-1.5c0.7,0.5,1.3,1,2.1,1.6c1-1.5,2-2.9,3-4.4
	c0.4,0.4,0.9,0.7,1.3,1C9.6,11,8.3,12.9,7,14.9z"/>
</svg>
